{
 "topartists": {
  "artist": [
   {
    "name": "Zемфира",
    "playcount": "2575",
    "mbid": "cec59910-2d12-46ec-8e39-85ca06acb0ed",
    "url": "https://www.last.fm/music/Z%D0%B5%D0%BC%D1%84%D0%B8%D1%80%D0%B0",
    "streamable": "0",
    "image": [
     {
      "#text": "https://lastfm-img2.akamaized.net/i/u/34s/4a1686834cb44c8bbfd3eb4489adc7e7.png",
      "size": "small"
     },
     {
      "#text": "https://lastfm-img2.akamaized.net/i/u/64s/4a1686834cb44c8bbfd3eb4489adc7e7.png",
      "size": "medium"
     },
     {
      "#text": "https://lastfm-img2.akamaized.net/i/u/174s/4a1686834cb44c8bbfd3eb4489adc7e7.png",
      "size": "large"
     },
     {
      "#text": "https://lastfm-img2.akamaized.net/i/u/300x300/4a1686834cb44c8bbfd3eb4489adc7e7.png",
      "size": "extralarge"
     },
     {
      "#text": "https://lastfm-img2.akamaized.net/i/u/4a1686834cb44c8bbfd3eb4489adc7e7.png",
      "size": "mega"
     }
    ],
    "@attr": {
     "rank": "1"
    }
   },
   {
    "name": "Placebo",
    "playcount": "2148",
    "mbid": "979a39b4-2df9-4767-a3ca-7940e8aff05a",
    "url": "https://www.last.fm/music/Placebo",
    "streamable": "0",
    "image": [
     {
      "#text": "https://lastfm-img2.akamaized.net/i/u/34s/688efe80deee415eb72daee82d497112.png",
      "size": "small"
     },
     {
      "#text": "https://lastfm-img2.akamaized.net/i/u/64s/688efe80deee415eb72daee82d497112.png",
      "size": "medium"
     },
     {
      "#text": "https://lastfm-img2.akamaized.net/i/u/174s/688efe80deee415eb72daee82d497112.png",
      "size": "large"
     },
     {
      "#text": "https://lastfm-img2.akamaized.net/i/u/300x300/688efe80deee415eb72daee82d497112.png",
      "size": "extralarge"
     },
     {
      "#text": "https://lastfm-img2.akamaized.net/i/u/688efe80deee415eb72daee82d497112.png",
      "size": "mega"
     }
    ],
    "@attr": {
     "rank": "2"
    }
   },
   {
    "name": "Muse",
    "playcount": "2111",
    "mbid": "fd857293-5ab8-40de-b29e-55a69d4e4d0f",
    "url": "https://www.last.fm/music/Muse",
    "streamable": "0",
    "image": [
     {
      "#text": "https://lastfm-img2.akamaized.net/i/u/34s/2cf19f323f4c704a8a2a234a0e72988e.png",
      "size": "small"
     },
     {
      "#text": "https://lastfm-img2.akamaized.net/i/u/64s/2cf19f323f4c704a8a2a234a0e72988e.png",
      "size": "medium"
     },
     {
      "#text": "https://lastfm-img2.akamaized.net/i/u/174s/2cf19f323f4c704a8a2a234a0e72988e.png",
      "size": "large"
     },
     {
      "#text": "https://lastfm-img2.akamaized.net/i/u/300x300/2cf19f323f4c704a8a2a234a0e72988e.png",
      "size": "extralarge"
     },
     {
      "#text": "https://lastfm-img2.akamaized.net/i/u/2cf19f323f4c704a8a2a234a0e72988e.png",
      "size": "mega"
     }
    ],
    "@attr": {
     "rank": "3"
    }
   },
   {
    "name": "Сплин",
    "playcount": "1682",
    "mbid": "0783b768-6719-450b-a7e1-7e891da17af3",
    "url": "https://www.last.fm/music/%D0%A1%D0%BF%D0%BB%D0%B8%D0%BD",
    "streamable": "0",
    "image": [
     {
      "#text": "https://lastfm-img2.akamaized.net/i/u/34s/153d299a8cc34b67a656beab6067645e.png",
      "size": "small"
     },
     {
      "#text": "https://lastfm-img2.akamaized.net/i/u/64s/153d299a8cc34b67a656beab6067645e.png",
      "size": "medium"
     },
     {
      "#text": "https://lastfm-img2.akamaized.net/i/u/174s/153d299a8cc34b67a656beab6067645e.png",
      "size": "large"
     },
     {
      "#text": "https://lastfm-img2.akamaized.net/i/u/300x300/153d299a8cc34b67a656beab6067645e.png",
      "size": "extralarge"
     },
     {
      "#text": "https://lastfm-img2.akamaized.net/i/u/153d299a8cc34b67a656beab6067645e.png",
      "size": "mega"
     }
    ],
    "@attr": {
     "rank": "4"
    }
   },
   {
    "name": "Bring Me the Horizon",
    "playcount": "1028",
    "mbid": "074e3847-f67f-49f9-81f1-8c8cea147e8e",
    "url": "https://www.last.fm/music/Bring+Me+the+Horizon",
    "streamable": "0",
    "image": [
     {
      "#text": "https://lastfm-img2.akamaized.net/i/u/34s/ababcada9d3f423d9395ff3bfaf4f589.png",
      "size": "small"
     },
     {
      "#text": "https://lastfm-img2.akamaized.net/i/u/64s/ababcada9d3f423d9395ff3bfaf4f589.png",
      "size": "medium"
     },
     {
      "#text": "https://lastfm-img2.akamaized.net/i/u/174s/ababcada9d3f423d9395ff3bfaf4f589.png",
      "size": "large"
     },
     {
      "#text": "https://lastfm-img2.akamaized.net/i/u/300x300/ababcada9d3f423d9395ff3bfaf4f589.png",
      "size": "extralarge"
     },
     {
      "#text": "https://lastfm-img2.akamaized.net/i/u/ababcada9d3f423d9395ff3bfaf4f589.png",
      "size": "mega"
     }
    ],
    "@attr": {
     "rank": "5"
    }
   },
   {
    "name": "Океан Ельзи",
    "playcount": "953",
    "mbid": "87a417d3-f118-43e0-bece-3de1bd90fce0",
    "url": "https://www.last.fm/music/%D0%9E%D0%BA%D0%B5%D0%B0%D0%BD+%D0%95%D0%BB%D1%8C%D0%B7%D0%B8",
    "streamable": "0",
    "image": [
     {
      "#text": "https://lastfm-img2.akamaized.net/i/u/34s/63e634be38f742e495f8dbbb9d639d94.png",
      "size": "small"
     },
     {
      "#text": "https://lastfm-img2.akamaized.net/i/u/64s/63e634be38f742e495f8dbbb9d639d94.png",
      "size": "medium"
     },
     {
      "#text": "https://lastfm-img2.akamaized.net/i/u/174s/63e634be38f742e495f8dbbb9d639d94.png",
      "size": "large"
     },
     {
      "#text": "https://lastfm-img2.akamaized.net/i/u/300x300/63e634be38f742e495f8dbbb9d639d94.png",
      "size": "extralarge"
     },
     {
      "#text": "https://lastfm-img2.akamaized.net/i/u/63e634be38f742e495f8dbbb9d639d94.png",
      "size": "mega"
     }
    ],
    "@attr": {
     "rank": "6"
    }
   },
   {
    "name": "Depeche Mode",
    "playcount": "748",
    "mbid": "8538e728-ca0b-4321-b7e5-cff6565dd4c0",
    "url": "https://www.last.fm/music/Depeche+Mode",
    "streamable": "0",
    "image": [
     {
      "#text": "https://lastfm-img2.akamaized.net/i/u/34s/edffba3359da06fe1ac8e3e16b17e8f1.png",
      "size": "small"
     },
     {
      "#text": "https://lastfm-img2.akamaized.net/i/u/64s/edffba3359da06fe1ac8e3e16b17e8f1.png",
      "size": "medium"
     },
     {
      "#text": "https://lastfm-img2.akamaized.net/i/u/174s/edffba3359da06fe1ac8e3e16b17e8f1.png",
      "size": "large"
     },
     {
      "#text": "https://lastfm-img2.akamaized.net/i/u/300x300/edffba3359da06fe1ac8e3e16b17e8f1.png",
      "size": "extralarge"
     },
     {
      "#text": "https://lastfm-img2.akamaized.net/i/u/edffba3359da06fe1ac8e3e16b17e8f1.png",
      "size": "mega"
     }
    ],
    "@attr": {
     "rank": "7"
    }
   },
   {
    "name": "Arctic Monkeys",
    "playcount": "703",
    "mbid": "ada7a83c-e3e1-40f1-93f9-3e73dbc9298a",
    "url": "https://www.last.fm/music/Arctic+Monkeys",
    "streamable": "0",
    "image": [
     {
      "#text": "https://lastfm-img2.akamaized.net/i/u/34s/c825233e09af4641a5ce7b6ece883aae.png",
      "size": "small"
     },
     {
      "#text": "https://lastfm-img2.akamaized.net/i/u/64s/c825233e09af4641a5ce7b6ece883aae.png",
      "size": "medium"
     },
     {
      "#text": "https://lastfm-img2.akamaized.net/i/u/174s/c825233e09af4641a5ce7b6ece883aae.png",
      "size": "large"
     },
     {
      "#text": "https://lastfm-img2.akamaized.net/i/u/300x300/c825233e09af4641a5ce7b6ece883aae.png",
      "size": "extralarge"
     },
     {
      "#text": "https://lastfm-img2.akamaized.net/i/u/c825233e09af4641a5ce7b6ece883aae.png",
      "size": "mega"
     }
    ],
    "@attr": {
     "rank": "8"
    }
   },
   {
    "name": "Yeah Yeah Yeahs",
    "playcount": "666",
    "mbid": "584c04d2-4acc-491b-8a0a-e63133f4bfc4",
    "url": "https://www.last.fm/music/Yeah+Yeah+Yeahs",
    "streamable": "0",
    "image": [
     {
      "#text": "https://lastfm-img2.akamaized.net/i/u/34s/884f2faa565b4cf5a3f7bb758bfbc99d.png",
      "size": "small"
     },
     {
      "#text": "https://lastfm-img2.akamaized.net/i/u/64s/884f2faa565b4cf5a3f7bb758bfbc99d.png",
      "size": "medium"
     },
     {
      "#text": "https://lastfm-img2.akamaized.net/i/u/174s/884f2faa565b4cf5a3f7bb758bfbc99d.png",
      "size": "large"
     },
     {
      "#text": "https://lastfm-img2.akamaized.net/i/u/300x300/884f2faa565b4cf5a3f7bb758bfbc99d.png",
      "size": "extralarge"
     },
     {
      "#text": "https://lastfm-img2.akamaized.net/i/u/884f2faa565b4cf5a3f7bb758bfbc99d.png",
      "size": "mega"
     }
    ],
    "@attr": {
     "rank": "9"
    }
   },
   {
    "name": "Blondie",
    "playcount": "538",
    "mbid": "4d2956d1-a3f7-44bb-9a41-67563e1a0c94",
    "url": "https://www.last.fm/music/Blondie",
    "streamable": "0",
    "image": [
     {
      "#text": "https://lastfm-img2.akamaized.net/i/u/34s/da8b451a4a994c59a9915112b2eaedbd.png",
      "size": "small"
     },
     {
      "#text": "https://lastfm-img2.akamaized.net/i/u/64s/da8b451a4a994c59a9915112b2eaedbd.png",
      "size": "medium"
     },
     {
      "#text": "https://lastfm-img2.akamaized.net/i/u/174s/da8b451a4a994c59a9915112b2eaedbd.png",
      "size": "large"
     },
     {
      "#text": "https://lastfm-img2.akamaized.net/i/u/300x300/da8b451a4a994c59a9915112b2eaedbd.png",
      "size": "extralarge"
     },
     {
      "#text": "https://lastfm-img2.akamaized.net/i/u/da8b451a4a994c59a9915112b2eaedbd.png",
      "size": "mega"
     }
    ],
    "@attr": {
     "rank": "10"
    }
   },
   {
    "name": "Queen",
    "playcount": "494",
    "mbid": "420ca290-76c5-41af-999e-564d7c71f1a7",
    "url": "https://www.last.fm/music/Queen",
    "streamable": "0",
    "image": [
     {
      "#text": "https://lastfm-img2.akamaized.net/i/u/34s/bd3b4dad5ca04c5da7fa22f897bc1cd0.png",
      "size": "small"
     },
     {
      "#text": "https://lastfm-img2.akamaized.net/i/u/64s/bd3b4dad5ca04c5da7fa22f897bc1cd0.png",
      "size": "medium"
     },
     {
      "#text": "https://lastfm-img2.akamaized.net/i/u/174s/bd3b4dad5ca04c5da7fa22f897bc1cd0.png",
      "size": "large"
     },
     {
      "#text": "https://lastfm-img2.akamaized.net/i/u/300x300/bd3b4dad5ca04c5da7fa22f897bc1cd0.png",
      "size": "extralarge"
     },
     {
      "#text": "https://lastfm-img2.akamaized.net/i/u/bd3b4dad5ca04c5da7fa22f897bc1cd0.png",
      "size": "mega"
     }
    ],
    "@attr": {
     "rank": "11"
    }
   },
   {
    "name": "alt-J",
    "playcount": "466",
    "mbid": "fc7bbf00-fbaa-4736-986b-b3ac0266ca9b",
    "url": "https://www.last.fm/music/alt-J",
    "streamable": "0",
    "image": [
     {
      "#text": "https://lastfm-img2.akamaized.net/i/u/34s/bf2571ed95b92afd6d5ee5c49ac97b06.png",
      "size": "small"
     },
     {
      "#text": "https://lastfm-img2.akamaized.net/i/u/64s/bf2571ed95b92afd6d5ee5c49ac97b06.png",
      "size": "medium"
     },
     {
      "#text": "https://lastfm-img2.akamaized.net/i/u/174s/bf2571ed95b92afd6d5ee5c49ac97b06.png",
      "size": "large"
     },
     {
      "#text": "https://lastfm-img2.akamaized.net/i/u/300x300/bf2571ed95b92afd6d5ee5c49ac97b06.png",
      "size": "extralarge"
     },
     {
      "#text": "https://lastfm-img2.akamaized.net/i/u/bf2571ed95b92afd6d5ee5c49ac97b06.png",
      "size": "mega"
     }
    ],
    "@attr": {
     "rank": "12"
    }
   },
   {
    "name": "Grimes",
    "playcount": "441",
    "mbid": "7e5a2a59-6d9f-4a17-b7c2-e1eedb7bd222",
    "url": "https://www.last.fm/music/Grimes",
    "streamable": "0",
    "image": [
     {
      "#text": "https://lastfm-img2.akamaized.net/i/u/34s/2b72996e181364e0d10f7b621f1fc43c.png",
      "size": "small"
     },
     {
      "#text": "https://lastfm-img2.akamaized.net/i/u/64s/2b72996e181364e0d10f7b621f1fc43c.png",
      "size": "medium"
     },
     {
      "#text": "https://lastfm-img2.akamaized.net/i/u/174s/2b72996e181364e0d10f7b621f1fc43c.png",
      "size": "large"
     },
     {
      "#text": "https://lastfm-img2.akamaized.net/i/u/300x300/2b72996e181364e0d10f7b621f1fc43c.png",
      "size": "extralarge"
     },
     {
      "#text": "https://lastfm-img2.akamaized.net/i/u/2b72996e181364e0d10f7b621f1fc43c.png",
      "size": "mega"
     }
    ],
    "@attr": {
     "rank": "13"
    }
   },
   {
    "name": "Tesla Boy",
    "playcount": "436",
    "mbid": "ec61a620-e75b-4229-adcf-b938b19b3e52",
    "url": "https://www.last.fm/music/Tesla+Boy",
    "streamable": "0",
    "image": [
     {
      "#text": "https://lastfm-img2.akamaized.net/i/u/34s/2a494bd08e5a413ec192ae7ef7eba475.png",
      "size": "small"
     },
     {
      "#text": "https://lastfm-img2.akamaized.net/i/u/64s/2a494bd08e5a413ec192ae7ef7eba475.png",
      "size": "medium"
     },
     {
      "#text": "https://lastfm-img2.akamaized.net/i/u/174s/2a494bd08e5a413ec192ae7ef7eba475.png",
      "size": "large"
     },
     {
      "#text": "https://lastfm-img2.akamaized.net/i/u/300x300/2a494bd08e5a413ec192ae7ef7eba475.png",
      "size": "extralarge"
     },
     {
      "#text": "https://lastfm-img2.akamaized.net/i/u/2a494bd08e5a413ec192ae7ef7eba475.png",
      "size": "mega"
     }
    ],
    "@attr": {
     "rank": "14"
    }
   },
   {
    "name": "Korn",
    "playcount": "435",
    "mbid": "ac865b2e-bba8-4f5a-8756-dd40d5e39f46",
    "url": "https://www.last.fm/music/Korn",
    "streamable": "0",
    "image": [
     {
      "#text": "https://lastfm-img2.akamaized.net/i/u/34s/ebe1b24a76cb407a89f871d688f9b1dc.png",
      "size": "small"
     },
     {
      "#text": "https://lastfm-img2.akamaized.net/i/u/64s/ebe1b24a76cb407a89f871d688f9b1dc.png",
      "size": "medium"
     },
     {
      "#text": "https://lastfm-img2.akamaized.net/i/u/174s/ebe1b24a76cb407a89f871d688f9b1dc.png",
      "size": "large"
     },
     {
      "#text": "https://lastfm-img2.akamaized.net/i/u/300x300/ebe1b24a76cb407a89f871d688f9b1dc.png",
      "size": "extralarge"
     },
     {
      "#text": "https://lastfm-img2.akamaized.net/i/u/ebe1b24a76cb407a89f871d688f9b1dc.png",
      "size": "mega"
     }
    ],
    "@attr": {
     "rank": "15"
    }
   },
   {
    "name": "Armin van Buuren",
    "playcount": "432",
    "mbid": "477b8c0c-c5fc-4ad2-b5b2-191f0bf2a9df",
    "url": "https://www.last.fm/music/Armin+van+Buuren",
    "streamable": "0",
    "image": [
     {
      "#text": "https://lastfm-img2.akamaized.net/i/u/34s/09b051b6c99e4a5caf7e6c4180dfd98b.png",
      "size": "small"
     },
     {
      "#text": "https://lastfm-img2.akamaized.net/i/u/64s/09b051b6c99e4a5caf7e6c4180dfd98b.png",
      "size": "medium"
     },
     {
      "#text": "https://lastfm-img2.akamaized.net/i/u/174s/09b051b6c99e4a5caf7e6c4180dfd98b.png",
      "size": "large"
     },
     {
      "#text": "https://lastfm-img2.akamaized.net/i/u/300x300/09b051b6c99e4a5caf7e6c4180dfd98b.png",
      "size": "extralarge"
     },
     {
      "#text": "https://lastfm-img2.akamaized.net/i/u/09b051b6c99e4a5caf7e6c4180dfd98b.png",
      "size": "mega"
     }
    ],
    "@attr": {
     "rank": "16"
    }
   },
   {
    "name": "Garbage",
    "playcount": "425",
    "mbid": "f9ef7a22-4262-4596-a2a8-1d19345b8e50",
    "url": "https://www.last.fm/music/Garbage",
    "streamable": "0",
    "image": [
     {
      "#text": "https://lastfm-img2.akamaized.net/i/u/34s/78ee7237207d40819a0eb93c79d87024.png",
      "size": "small"
     },
     {
      "#text": "https://lastfm-img2.akamaized.net/i/u/64s/78ee7237207d40819a0eb93c79d87024.png",
      "size": "medium"
     },
     {
      "#text": "https://lastfm-img2.akamaized.net/i/u/174s/78ee7237207d40819a0eb93c79d87024.png",
      "size": "large"
     },
     {
      "#text": "https://lastfm-img2.akamaized.net/i/u/300x300/78ee7237207d40819a0eb93c79d87024.png",
      "size": "extralarge"
     },
     {
      "#text": "https://lastfm-img2.akamaized.net/i/u/78ee7237207d40819a0eb93c79d87024.png",
      "size": "mega"
     }
    ],
    "@attr": {
     "rank": "17"
    }
   },
   {
    "name": "Chase & Status",
    "playcount": "413",
    "mbid": "82e454e2-38ee-4e69-89a6-cc65167753d1",
    "url": "https://www.last.fm/music/Chase+&+Status",
    "streamable": "0",
    "image": [
     {
      "#text": "https://lastfm-img2.akamaized.net/i/u/34s/cf1158ba124749018c97781a756ae7c4.png",
      "size": "small"
     },
     {
      "#text": "https://lastfm-img2.akamaized.net/i/u/64s/cf1158ba124749018c97781a756ae7c4.png",
      "size": "medium"
     },
     {
      "#text": "https://lastfm-img2.akamaized.net/i/u/174s/cf1158ba124749018c97781a756ae7c4.png",
      "size": "large"
     },
     {
      "#text": "https://lastfm-img2.akamaized.net/i/u/300x300/cf1158ba124749018c97781a756ae7c4.png",
      "size": "extralarge"
     },
     {
      "#text": "https://lastfm-img2.akamaized.net/i/u/cf1158ba124749018c97781a756ae7c4.png",
      "size": "mega"
     }
    ],
    "@attr": {
     "rank": "18"
    }
   },
   {
    "name": "Franz Ferdinand",
    "playcount": "402",
    "mbid": "aa7a2827-f74b-473c-bd79-03d065835cf7",
    "url": "https://www.last.fm/music/Franz+Ferdinand",
    "streamable": "0",
    "image": [
     {
      "#text": "https://lastfm-img2.akamaized.net/i/u/34s/d86635fe980d42cd8948956cebf3ab34.png",
      "size": "small"
     },
     {
      "#text": "https://lastfm-img2.akamaized.net/i/u/64s/d86635fe980d42cd8948956cebf3ab34.png",
      "size": "medium"
     },
     {
      "#text": "https://lastfm-img2.akamaized.net/i/u/174s/d86635fe980d42cd8948956cebf3ab34.png",
      "size": "large"
     },
     {
      "#text": "https://lastfm-img2.akamaized.net/i/u/300x300/d86635fe980d42cd8948956cebf3ab34.png",
      "size": "extralarge"
     },
     {
      "#text": "https://lastfm-img2.akamaized.net/i/u/d86635fe980d42cd8948956cebf3ab34.png",
      "size": "mega"
     }
    ],
    "@attr": {
     "rank": "19"
    }
   },
   {
    "name": "Lana Del Rey",
    "playcount": "389",
    "mbid": "b7539c32-53e7-4908-bda3-81449c367da6",
    "url": "https://www.last.fm/music/Lana+Del+Rey",
    "streamable": "0",
    "image": [
     {
      "#text": "https://lastfm-img2.akamaized.net/i/u/34s/9719a76b6233f404d627d43c9780eaac.png",
      "size": "small"
     },
     {
      "#text": "https://lastfm-img2.akamaized.net/i/u/64s/9719a76b6233f404d627d43c9780eaac.png",
      "size": "medium"
     },
     {
      "#text": "https://lastfm-img2.akamaized.net/i/u/174s/9719a76b6233f404d627d43c9780eaac.png",
      "size": "large"
     },
     {
      "#text": "https://lastfm-img2.akamaized.net/i/u/300x300/9719a76b6233f404d627d43c9780eaac.png",
      "size": "extralarge"
     },
     {
      "#text": "https://lastfm-img2.akamaized.net/i/u/9719a76b6233f404d627d43c9780eaac.png",
      "size": "mega"
     }
    ],
    "@attr": {
     "rank": "20"
    }
   },
   {
    "name": "Dolphin",
    "playcount": "373",
    "mbid": "a43b93f8-49cb-43e0-8696-31a1236eb99f",
    "url": "https://www.last.fm/music/Dolphin",
    "streamable": "0",
    "image": [
     {
      "#text": "https://lastfm-img2.akamaized.net/i/u/34s/93baff12fd2f4e55a2d87a9a430037af.png",
      "size": "small"
     },
     {
      "#text": "https://lastfm-img2.akamaized.net/i/u/64s/93baff12fd2f4e55a2d87a9a430037af.png",
      "size": "medium"
     },
     {
      "#text": "https://lastfm-img2.akamaized.net/i/u/174s/93baff12fd2f4e55a2d87a9a430037af.png",
      "size": "large"
     },
     {
      "#text": "https://lastfm-img2.akamaized.net/i/u/300x300/93baff12fd2f4e55a2d87a9a430037af.png",
      "size": "extralarge"
     },
     {
      "#text": "https://lastfm-img2.akamaized.net/i/u/93baff12fd2f4e55a2d87a9a430037af.png",
      "size": "mega"
     }
    ],
    "@attr": {
     "rank": "21"
    }
   },
   {
    "name": "Ellie Goulding",
    "playcount": "356",
    "mbid": "33ca19f4-18c8-4411-98df-ac23890ce9f5",
    "url": "https://www.last.fm/music/Ellie+Goulding",
    "streamable": "0",
    "image": [
     {
      "#text": "https://lastfm-img2.akamaized.net/i/u/34s/762e4ca0a9e712c4fa54426447a84169.png",
      "size": "small"
     },
     {
      "#text": "https://lastfm-img2.akamaized.net/i/u/64s/762e4ca0a9e712c4fa54426447a84169.png",
      "size": "medium"
     },
     {
      "#text": "https://lastfm-img2.akamaized.net/i/u/174s/762e4ca0a9e712c4fa54426447a84169.png",
      "size": "large"
     },
     {
      "#text": "https://lastfm-img2.akamaized.net/i/u/300x300/762e4ca0a9e712c4fa54426447a84169.png",
      "size": "extralarge"
     },
     {
      "#text": "https://lastfm-img2.akamaized.net/i/u/762e4ca0a9e712c4fa54426447a84169.png",
      "size": "mega"
     }
    ],
    "@attr": {
     "rank": "22"
    }
   },
   {
    "name": "Burial",
    "playcount": "335",
    "mbid": "b068d41f-855d-4426-9ff7-f79b094441ff",
    "url": "https://www.last.fm/music/Burial",
    "streamable": "0",
    "image": [
     {
      "#text": "https://lastfm-img2.akamaized.net/i/u/34s/e95e760cc3624d9fb02b5ed66e41408c.png",
      "size": "small"
     },
     {
      "#text": "https://lastfm-img2.akamaized.net/i/u/64s/e95e760cc3624d9fb02b5ed66e41408c.png",
      "size": "medium"
     },
     {
      "#text": "https://lastfm-img2.akamaized.net/i/u/174s/e95e760cc3624d9fb02b5ed66e41408c.png",
      "size": "large"
     },
     {
      "#text": "https://lastfm-img2.akamaized.net/i/u/300x300/e95e760cc3624d9fb02b5ed66e41408c.png",
      "size": "extralarge"
     },
     {
      "#text": "https://lastfm-img2.akamaized.net/i/u/e95e760cc3624d9fb02b5ed66e41408c.png",
      "size": "mega"
     }
    ],
    "@attr": {
     "rank": "23"
    }
   },
   {
    "name": "White Lies",
    "playcount": "335",
    "mbid": "5bdb38bd-5c5b-4d0f-8901-8bbe1d7062d8",
    "url": "https://www.last.fm/music/White+Lies",
    "streamable": "0",
    "image": [
     {
      "#text": "https://lastfm-img2.akamaized.net/i/u/34s/fb085583c43a4866a10acb32bafc16fe.png",
      "size": "small"
     },
     {
      "#text": "https://lastfm-img2.akamaized.net/i/u/64s/fb085583c43a4866a10acb32bafc16fe.png",
      "size": "medium"
     },
     {
      "#text": "https://lastfm-img2.akamaized.net/i/u/174s/fb085583c43a4866a10acb32bafc16fe.png",
      "size": "large"
     },
     {
      "#text": "https://lastfm-img2.akamaized.net/i/u/300x300/fb085583c43a4866a10acb32bafc16fe.png",
      "size": "extralarge"
     },
     {
      "#text": "https://lastfm-img2.akamaized.net/i/u/fb085583c43a4866a10acb32bafc16fe.png",
      "size": "mega"
     }
    ],
    "@attr": {
     "rank": "24"
    }
   },
   {
    "name": "Foals",
    "playcount": "288",
    "mbid": "6a65d878-fcd0-42cf-aff9-ca1d636a8bcc",
    "url": "https://www.last.fm/music/Foals",
    "streamable": "0",
    "image": [
     {
      "#text": "https://lastfm-img2.akamaized.net/i/u/34s/e69ff7afa3c743fdb26df9959b93a188.png",
      "size": "small"
     },
     {
      "#text": "https://lastfm-img2.akamaized.net/i/u/64s/e69ff7afa3c743fdb26df9959b93a188.png",
      "size": "medium"
     },
     {
      "#text": "https://lastfm-img2.akamaized.net/i/u/174s/e69ff7afa3c743fdb26df9959b93a188.png",
      "size": "large"
     },
     {
      "#text": "https://lastfm-img2.akamaized.net/i/u/300x300/e69ff7afa3c743fdb26df9959b93a188.png",
      "size": "extralarge"
     },
     {
      "#text": "https://lastfm-img2.akamaized.net/i/u/e69ff7afa3c743fdb26df9959b93a188.png",
      "size": "mega"
     }
    ],
    "@attr": {
     "rank": "25"
    }
   },
   {
    "name": "Led Zeppelin",
    "playcount": "277",
    "mbid": "d6e0e274-8e19-44ce-b5b2-52c12f8a674a",
    "url": "https://www.last.fm/music/Led+Zeppelin",
    "streamable": "0",
    "image": [
     {
      "#text": "https://lastfm-img2.akamaized.net/i/u/34s/a9b30b1f754d4e7198ca1d5cdc469c9e.png",
      "size": "small"
     },
     {
      "#text": "https://lastfm-img2.akamaized.net/i/u/64s/a9b30b1f754d4e7198ca1d5cdc469c9e.png",
      "size": "medium"
     },
     {
      "#text": "https://lastfm-img2.akamaized.net/i/u/174s/a9b30b1f754d4e7198ca1d5cdc469c9e.png",
      "size": "large"
     },
     {
      "#text": "https://lastfm-img2.akamaized.net/i/u/300x300/a9b30b1f754d4e7198ca1d5cdc469c9e.png",
      "size": "extralarge"
     },
     {
      "#text": "https://lastfm-img2.akamaized.net/i/u/a9b30b1f754d4e7198ca1d5cdc469c9e.png",
      "size": "mega"
     }
    ],
    "@attr": {
     "rank": "26"
    }
   },
   {
    "name": "30 Seconds to Mars",
    "playcount": "270",
    "mbid": "d8354b38-e942-4c89-ba93-29323432abc3",
    "url": "https://www.last.fm/music/30+Seconds+to+Mars",
    "streamable": "0",
    "image": [
     {
      "#text": "https://lastfm-img2.akamaized.net/i/u/34s/d1010a3c539f4dcc97a03b98ac5b3b68.png",
      "size": "small"
     },
     {
      "#text": "https://lastfm-img2.akamaized.net/i/u/64s/d1010a3c539f4dcc97a03b98ac5b3b68.png",
      "size": "medium"
     },
     {
      "#text": "https://lastfm-img2.akamaized.net/i/u/174s/d1010a3c539f4dcc97a03b98ac5b3b68.png",
      "size": "large"
     },
     {
      "#text": "https://lastfm-img2.akamaized.net/i/u/300x300/d1010a3c539f4dcc97a03b98ac5b3b68.png",
      "size": "extralarge"
     },
     {
      "#text": "https://lastfm-img2.akamaized.net/i/u/d1010a3c539f4dcc97a03b98ac5b3b68.png",
      "size": "mega"
     }
    ],
    "@attr": {
     "rank": "27"
    }
   },
   {
    "name": "U2",
    "playcount": "269",
    "mbid": "a3cb23fc-acd3-4ce0-8f36-1e5aa6a18432",
    "url": "https://www.last.fm/music/U2",
    "streamable": "0",
    "image": [
     {
      "#text": "https://lastfm-img2.akamaized.net/i/u/34s/521f52d1ea68c31b03b4179f4d0958c2.png",
      "size": "small"
     },
     {
      "#text": "https://lastfm-img2.akamaized.net/i/u/64s/521f52d1ea68c31b03b4179f4d0958c2.png",
      "size": "medium"
     },
     {
      "#text": "https://lastfm-img2.akamaized.net/i/u/174s/521f52d1ea68c31b03b4179f4d0958c2.png",
      "size": "large"
     },
     {
      "#text": "https://lastfm-img2.akamaized.net/i/u/300x300/521f52d1ea68c31b03b4179f4d0958c2.png",
      "size": "extralarge"
     },
     {
      "#text": "https://lastfm-img2.akamaized.net/i/u/521f52d1ea68c31b03b4179f4d0958c2.png",
      "size": "mega"
     }
    ],
    "@attr": {
     "rank": "28"
    }
   },
   {
    "name": "On-The-Go",
    "playcount": "258",
    "mbid": "00d7b83c-b4f7-41f1-892a-e0220a5d8e91",
    "url": "https://www.last.fm/music/On-The-Go",
    "streamable": "0",
    "image": [
     {
      "#text": "https://lastfm-img2.akamaized.net/i/u/34s/4af74452a7f1493787e09918b50b8268.png",
      "size": "small"
     },
     {
      "#text": "https://lastfm-img2.akamaized.net/i/u/64s/4af74452a7f1493787e09918b50b8268.png",
      "size": "medium"
     },
     {
      "#text": "https://lastfm-img2.akamaized.net/i/u/174s/4af74452a7f1493787e09918b50b8268.png",
      "size": "large"
     },
     {
      "#text": "https://lastfm-img2.akamaized.net/i/u/300x300/4af74452a7f1493787e09918b50b8268.png",
      "size": "extralarge"
     },
     {
      "#text": "https://lastfm-img2.akamaized.net/i/u/4af74452a7f1493787e09918b50b8268.png",
      "size": "mega"
     }
    ],
    "@attr": {
     "rank": "29"
    }
   },
   {
    "name": "Ляпис Трубецкой",
    "playcount": "245",
    "mbid": "452b56d2-c904-4030-ad12-6d4fbd498e1f",
    "url": "https://www.last.fm/music/%D0%9B%D1%8F%D0%BF%D0%B8%D1%81+%D0%A2%D1%80%D1%83%D0%B1%D0%B5%D1%86%D0%BA%D0%BE%D0%B9",
    "streamable": "0",
    "image": [
     {
      "#text": "https://lastfm-img2.akamaized.net/i/u/34s/608e6debe4a44f7d916449adae72ce04.png",
      "size": "small"
     },
     {
      "#text": "https://lastfm-img2.akamaized.net/i/u/64s/608e6debe4a44f7d916449adae72ce04.png",
      "size": "medium"
     },
     {
      "#text": "https://lastfm-img2.akamaized.net/i/u/174s/608e6debe4a44f7d916449adae72ce04.png",
      "size": "large"
     },
     {
      "#text": "https://lastfm-img2.akamaized.net/i/u/300x300/608e6debe4a44f7d916449adae72ce04.png",
      "size": "extralarge"
     },
     {
      "#text": "https://lastfm-img2.akamaized.net/i/u/608e6debe4a44f7d916449adae72ce04.png",
      "size": "mega"
     }
    ],
    "@attr": {
     "rank": "30"
    }
   },
   {
    "name": "FKA twigs",
    "playcount": "235",
    "mbid": "1e4e9db7-5068-4a9c-bdd0-5777e47172c8",
    "url": "https://www.last.fm/music/FKA+twigs",
    "streamable": "0",
    "image": [
     {
      "#text": "https://lastfm-img2.akamaized.net/i/u/34s/e22f62c6aadbf9cdb7a2c1b859a9f32c.png",
      "size": "small"
     },
     {
      "#text": "https://lastfm-img2.akamaized.net/i/u/64s/e22f62c6aadbf9cdb7a2c1b859a9f32c.png",
      "size": "medium"
     },
     {
      "#text": "https://lastfm-img2.akamaized.net/i/u/174s/e22f62c6aadbf9cdb7a2c1b859a9f32c.png",
      "size": "large"
     },
     {
      "#text": "https://lastfm-img2.akamaized.net/i/u/300x300/e22f62c6aadbf9cdb7a2c1b859a9f32c.png",
      "size": "extralarge"
     },
     {
      "#text": "https://lastfm-img2.akamaized.net/i/u/e22f62c6aadbf9cdb7a2c1b859a9f32c.png",
      "size": "mega"
     }
    ],
    "@attr": {
     "rank": "31"
    }
   },
   {
    "name": "Florence + the Machine",
    "playcount": "231",
    "mbid": "5fee3020-513b-48c2-b1f7-4681b01db0c6",
    "url": "https://www.last.fm/music/Florence+%252B+the+Machine",
    "streamable": "0",
    "image": [
     {
      "#text": "https://lastfm-img2.akamaized.net/i/u/34s/c63d20e398878a9bbc541d0459f0f73b.png",
      "size": "small"
     },
     {
      "#text": "https://lastfm-img2.akamaized.net/i/u/64s/c63d20e398878a9bbc541d0459f0f73b.png",
      "size": "medium"
     },
     {
      "#text": "https://lastfm-img2.akamaized.net/i/u/174s/c63d20e398878a9bbc541d0459f0f73b.png",
      "size": "large"
     },
     {
      "#text": "https://lastfm-img2.akamaized.net/i/u/300x300/c63d20e398878a9bbc541d0459f0f73b.png",
      "size": "extralarge"
     },
     {
      "#text": "https://lastfm-img2.akamaized.net/i/u/c63d20e398878a9bbc541d0459f0f73b.png",
      "size": "mega"
     }
    ],
    "@attr": {
     "rank": "32"
    }
   },
   {
    "name": "Би-2",
    "playcount": "227",
    "mbid": "5ca35ace-4006-4d4a-af04-5cd91dafab14",
    "url": "https://www.last.fm/music/%D0%91%D0%B8-2",
    "streamable": "0",
    "image": [
     {
      "#text": "https://lastfm-img2.akamaized.net/i/u/34s/40dfa7aabc3945c397f063c0bc9c7161.png",
      "size": "small"
     },
     {
      "#text": "https://lastfm-img2.akamaized.net/i/u/64s/40dfa7aabc3945c397f063c0bc9c7161.png",
      "size": "medium"
     },
     {
      "#text": "https://lastfm-img2.akamaized.net/i/u/174s/40dfa7aabc3945c397f063c0bc9c7161.png",
      "size": "large"
     },
     {
      "#text": "https://lastfm-img2.akamaized.net/i/u/300x300/40dfa7aabc3945c397f063c0bc9c7161.png",
      "size": "extralarge"
     },
     {
      "#text": "https://lastfm-img2.akamaized.net/i/u/40dfa7aabc3945c397f063c0bc9c7161.png",
      "size": "mega"
     }
    ],
    "@attr": {
     "rank": "33"
    }
   },
   {
    "name": "The Beatles",
    "playcount": "225",
    "mbid": "b10bbbfc-cf9e-42e0-be17-e2c3e1d2600d",
    "url": "https://www.last.fm/music/The+Beatles",
    "streamable": "0",
    "image": [
     {
      "#text": "https://lastfm-img2.akamaized.net/i/u/34s/e7c30023dbb04c558d7804365a08676b.png",
      "size": "small"
     },
     {
      "#text": "https://lastfm-img2.akamaized.net/i/u/64s/e7c30023dbb04c558d7804365a08676b.png",
      "size": "medium"
     },
     {
      "#text": "https://lastfm-img2.akamaized.net/i/u/174s/e7c30023dbb04c558d7804365a08676b.png",
      "size": "large"
     },
     {
      "#text": "https://lastfm-img2.akamaized.net/i/u/300x300/e7c30023dbb04c558d7804365a08676b.png",
      "size": "extralarge"
     },
     {
      "#text": "https://lastfm-img2.akamaized.net/i/u/e7c30023dbb04c558d7804365a08676b.png",
      "size": "mega"
     }
    ],
    "@attr": {
     "rank": "34"
    }
   },
   {
    "name": "Lamb",
    "playcount": "221",
    "mbid": "d0cd81a5-0d64-404e-9bd3-932c019694b3",
    "url": "https://www.last.fm/music/Lamb",
    "streamable": "0",
    "image": [
     {
      "#text": "https://lastfm-img2.akamaized.net/i/u/34s/31d20fe530fd4f57ac6ea3fcfd009d2d.png",
      "size": "small"
     },
     {
      "#text": "https://lastfm-img2.akamaized.net/i/u/64s/31d20fe530fd4f57ac6ea3fcfd009d2d.png",
      "size": "medium"
     },
     {
      "#text": "https://lastfm-img2.akamaized.net/i/u/174s/31d20fe530fd4f57ac6ea3fcfd009d2d.png",
      "size": "large"
     },
     {
      "#text": "https://lastfm-img2.akamaized.net/i/u/300x300/31d20fe530fd4f57ac6ea3fcfd009d2d.png",
      "size": "extralarge"
     },
     {
      "#text": "https://lastfm-img2.akamaized.net/i/u/31d20fe530fd4f57ac6ea3fcfd009d2d.png",
      "size": "mega"
     }
    ],
    "@attr": {
     "rank": "35"
    }
   },
   {
    "name": "Blur",
    "playcount": "217",
    "mbid": "ba853904-ae25-4ebb-89d6-c44cfbd71bd2",
    "url": "https://www.last.fm/music/Blur",
    "streamable": "0",
    "image": [
     {
      "#text": "https://lastfm-img2.akamaized.net/i/u/34s/c665c91dd43f4da5b37cba4c0f8d54ea.png",
      "size": "small"
     },
     {
      "#text": "https://lastfm-img2.akamaized.net/i/u/64s/c665c91dd43f4da5b37cba4c0f8d54ea.png",
      "size": "medium"
     },
     {
      "#text": "https://lastfm-img2.akamaized.net/i/u/174s/c665c91dd43f4da5b37cba4c0f8d54ea.png",
      "size": "large"
     },
     {
      "#text": "https://lastfm-img2.akamaized.net/i/u/300x300/c665c91dd43f4da5b37cba4c0f8d54ea.png",
      "size": "extralarge"
     },
     {
      "#text": "https://lastfm-img2.akamaized.net/i/u/c665c91dd43f4da5b37cba4c0f8d54ea.png",
      "size": "mega"
     }
    ],
    "@attr": {
     "rank": "36"
    }
   },
   {
    "name": "The xx",
    "playcount": "205",
    "mbid": "c5c2ea1c-4bde-4f4d-bd0b-47b200bf99d6",
    "url": "https://www.last.fm/music/The+xx",
    "streamable": "0",
    "image": [
     {
      "#text": "https://lastfm-img2.akamaized.net/i/u/34s/d18444295f3226485a01a7c1d61e2166.png",
      "size": "small"
     },
     {
      "#text": "https://lastfm-img2.akamaized.net/i/u/64s/d18444295f3226485a01a7c1d61e2166.png",
      "size": "medium"
     },
     {
      "#text": "https://lastfm-img2.akamaized.net/i/u/174s/d18444295f3226485a01a7c1d61e2166.png",
      "size": "large"
     },
     {
      "#text": "https://lastfm-img2.akamaized.net/i/u/300x300/d18444295f3226485a01a7c1d61e2166.png",
      "size": "extralarge"
     },
     {
      "#text": "https://lastfm-img2.akamaized.net/i/u/d18444295f3226485a01a7c1d61e2166.png",
      "size": "mega"
     }
    ],
    "@attr": {
     "rank": "37"
    }
   },
   {
    "name": "Radiohead",
    "playcount": "182",
    "mbid": "a74b1b7f-71a5-4011-9441-d0b5e4122711",
    "url": "https://www.last.fm/music/Radiohead",
    "streamable": "0",
    "image": [
     {
      "#text": "https://lastfm-img2.akamaized.net/i/u/34s/598ae6dc5674923861236cca00e1eb84.png",
      "size": "small"
     },
     {
      "#text": "https://lastfm-img2.akamaized.net/i/u/64s/598ae6dc5674923861236cca00e1eb84.png",
      "size": "medium"
     },
     {
      "#text": "https://lastfm-img2.akamaized.net/i/u/174s/598ae6dc5674923861236cca00e1eb84.png",
      "size": "large"
     },
     {
      "#text": "https://lastfm-img2.akamaized.net/i/u/300x300/598ae6dc5674923861236cca00e1eb84.png",
      "size": "extralarge"
     },
     {
      "#text": "https://lastfm-img2.akamaized.net/i/u/598ae6dc5674923861236cca00e1eb84.png",
      "size": "mega"
     }
    ],
    "@attr": {
     "rank": "38"
    }
   },
   {
    "name": "65daysofstatic",
    "playcount": "181",
    "mbid": "0cd12ab3-9628-45ef-a97b-ff18624f14a0",
    "url": "https://www.last.fm/music/65daysofstatic",
    "streamable": "0",
    "image": [
     {
      "#text": "https://lastfm-img2.akamaized.net/i/u/34s/5415bcccc22c4d399d9936ef4df1f32b.png",
      "size": "small"
     },
     {
      "#text": "https://lastfm-img2.akamaized.net/i/u/64s/5415bcccc22c4d399d9936ef4df1f32b.png",
      "size": "medium"
     },
     {
      "#text": "https://lastfm-img2.akamaized.net/i/u/174s/5415bcccc22c4d399d9936ef4df1f32b.png",
      "size": "large"
     },
     {
      "#text": "https://lastfm-img2.akamaized.net/i/u/300x300/5415bcccc22c4d399d9936ef4df1f32b.png",
      "size": "extralarge"
     },
     {
      "#text": "https://lastfm-img2.akamaized.net/i/u/5415bcccc22c4d399d9936ef4df1f32b.png",
      "size": "mega"
     }
    ],
    "@attr": {
     "rank": "39"
    }
   },
   {
    "name": "Green Day",
    "playcount": "179",
    "mbid": "084308bd-1654-436f-ba03-df6697104e19",
    "url": "https://www.last.fm/music/Green+Day",
    "streamable": "0",
    "image": [
     {
      "#text": "https://lastfm-img2.akamaized.net/i/u/34s/32b892c5a71e45e8b730c55cf3b1f821.png",
      "size": "small"
     },
     {
      "#text": "https://lastfm-img2.akamaized.net/i/u/64s/32b892c5a71e45e8b730c55cf3b1f821.png",
      "size": "medium"
     },
     {
      "#text": "https://lastfm-img2.akamaized.net/i/u/174s/32b892c5a71e45e8b730c55cf3b1f821.png",
      "size": "large"
     },
     {
      "#text": "https://lastfm-img2.akamaized.net/i/u/300x300/32b892c5a71e45e8b730c55cf3b1f821.png",
      "size": "extralarge"
     },
     {
      "#text": "https://lastfm-img2.akamaized.net/i/u/32b892c5a71e45e8b730c55cf3b1f821.png",
      "size": "mega"
     }
    ],
    "@attr": {
     "rank": "40"
    }
   },
   {
    "name": "Moby",
    "playcount": "179",
    "mbid": "8970d868-0723-483b-a75b-51088913d3d4",
    "url": "https://www.last.fm/music/Moby",
    "streamable": "0",
    "image": [
     {
      "#text": "https://lastfm-img2.akamaized.net/i/u/34s/388eb0acb72941cdba4927be965ef41e.png",
      "size": "small"
     },
     {
      "#text": "https://lastfm-img2.akamaized.net/i/u/64s/388eb0acb72941cdba4927be965ef41e.png",
      "size": "medium"
     },
     {
      "#text": "https://lastfm-img2.akamaized.net/i/u/174s/388eb0acb72941cdba4927be965ef41e.png",
      "size": "large"
     },
     {
      "#text": "https://lastfm-img2.akamaized.net/i/u/300x300/388eb0acb72941cdba4927be965ef41e.png",
      "size": "extralarge"
     },
     {
      "#text": "https://lastfm-img2.akamaized.net/i/u/388eb0acb72941cdba4927be965ef41e.png",
      "size": "mega"
     }
    ],
    "@attr": {
     "rank": "41"
    }
   },
   {
    "name": "Nero",
    "playcount": "179",
    "mbid": "eb6f3590-7c5b-47f9-8251-bfac71d94d34",
    "url": "https://www.last.fm/music/Nero",
    "streamable": "0",
    "image": [
     {
      "#text": "https://lastfm-img2.akamaized.net/i/u/34s/fb1260d4d60f5f2a842696c2ee7c8382.png",
      "size": "small"
     },
     {
      "#text": "https://lastfm-img2.akamaized.net/i/u/64s/fb1260d4d60f5f2a842696c2ee7c8382.png",
      "size": "medium"
     },
     {
      "#text": "https://lastfm-img2.akamaized.net/i/u/174s/fb1260d4d60f5f2a842696c2ee7c8382.png",
      "size": "large"
     },
     {
      "#text": "https://lastfm-img2.akamaized.net/i/u/300x300/fb1260d4d60f5f2a842696c2ee7c8382.png",
      "size": "extralarge"
     },
     {
      "#text": "https://lastfm-img2.akamaized.net/i/u/fb1260d4d60f5f2a842696c2ee7c8382.png",
      "size": "mega"
     }
    ],
    "@attr": {
     "rank": "42"
    }
   },
   {
    "name": "Sia",
    "playcount": "176",
    "mbid": "2f548675-008d-4332-876c-108b0c7ab9c5",
    "url": "https://www.last.fm/music/Sia",
    "streamable": "0",
    "image": [
     {
      "#text": "https://lastfm-img2.akamaized.net/i/u/34s/ee10f625b9a87a4d5d6febca8b0746a9.png",
      "size": "small"
     },
     {
      "#text": "https://lastfm-img2.akamaized.net/i/u/64s/ee10f625b9a87a4d5d6febca8b0746a9.png",
      "size": "medium"
     },
     {
      "#text": "https://lastfm-img2.akamaized.net/i/u/174s/ee10f625b9a87a4d5d6febca8b0746a9.png",
      "size": "large"
     },
     {
      "#text": "https://lastfm-img2.akamaized.net/i/u/300x300/ee10f625b9a87a4d5d6febca8b0746a9.png",
      "size": "extralarge"
     },
     {
      "#text": "https://lastfm-img2.akamaized.net/i/u/ee10f625b9a87a4d5d6febca8b0746a9.png",
      "size": "mega"
     }
    ],
    "@attr": {
     "rank": "43"
    }
   },
   {
    "name": "Shura",
    "playcount": "175",
    "mbid": "bfba0555-9a6f-408d-a36d-cc32fa2c7b2d",
    "url": "https://www.last.fm/music/Shura",
    "streamable": "0",
    "image": [
     {
      "#text": "https://lastfm-img2.akamaized.net/i/u/34s/4f207023e6e7400cc0f859b688188705.png",
      "size": "small"
     },
     {
      "#text": "https://lastfm-img2.akamaized.net/i/u/64s/4f207023e6e7400cc0f859b688188705.png",
      "size": "medium"
     },
     {
      "#text": "https://lastfm-img2.akamaized.net/i/u/174s/4f207023e6e7400cc0f859b688188705.png",
      "size": "large"
     },
     {
      "#text": "https://lastfm-img2.akamaized.net/i/u/300x300/4f207023e6e7400cc0f859b688188705.png",
      "size": "extralarge"
     },
     {
      "#text": "https://lastfm-img2.akamaized.net/i/u/4f207023e6e7400cc0f859b688188705.png",
      "size": "mega"
     }
    ],
    "@attr": {
     "rank": "44"
    }
   },
   {
    "name": "Linkin Park",
    "playcount": "170",
    "mbid": "f59c5520-5f46-4d2c-b2c4-822eabf53419",
    "url": "https://www.last.fm/music/Linkin+Park",
    "streamable": "0",
    "image": [
     {
      "#text": "https://lastfm-img2.akamaized.net/i/u/34s/799cd68d3cdc4b60bbf51eaca12c5e4a.png",
      "size": "small"
     },
     {
      "#text": "https://lastfm-img2.akamaized.net/i/u/64s/799cd68d3cdc4b60bbf51eaca12c5e4a.png",
      "size": "medium"
     },
     {
      "#text": "https://lastfm-img2.akamaized.net/i/u/174s/799cd68d3cdc4b60bbf51eaca12c5e4a.png",
      "size": "large"
     },
     {
      "#text": "https://lastfm-img2.akamaized.net/i/u/300x300/799cd68d3cdc4b60bbf51eaca12c5e4a.png",
      "size": "extralarge"
     },
     {
      "#text": "https://lastfm-img2.akamaized.net/i/u/799cd68d3cdc4b60bbf51eaca12c5e4a.png",
      "size": "mega"
     }
    ],
    "@attr": {
     "rank": "45"
    }
   },
   {
    "name": "Black Pistol Fire",
    "playcount": "164",
    "mbid": "43ca08d8-646c-4745-880f-44807656c105",
    "url": "https://www.last.fm/music/Black+Pistol+Fire",
    "streamable": "0",
    "image": [
     {
      "#text": "https://lastfm-img2.akamaized.net/i/u/34s/0473bb2e23a14297c2c9db1ffab7a16b.png",
      "size": "small"
     },
     {
      "#text": "https://lastfm-img2.akamaized.net/i/u/64s/0473bb2e23a14297c2c9db1ffab7a16b.png",
      "size": "medium"
     },
     {
      "#text": "https://lastfm-img2.akamaized.net/i/u/174s/0473bb2e23a14297c2c9db1ffab7a16b.png",
      "size": "large"
     },
     {
      "#text": "https://lastfm-img2.akamaized.net/i/u/300x300/0473bb2e23a14297c2c9db1ffab7a16b.png",
      "size": "extralarge"
     },
     {
      "#text": "https://lastfm-img2.akamaized.net/i/u/0473bb2e23a14297c2c9db1ffab7a16b.png",
      "size": "mega"
     }
    ],
    "@attr": {
     "rank": "46"
    }
   },
   {
    "name": "Oceanlab",
    "playcount": "164",
    "mbid": "a558ed3c-ab7d-49b8-a52d-14071b95fa4f",
    "url": "https://www.last.fm/music/Oceanlab",
    "streamable": "0",
    "image": [
     {
      "#text": "https://lastfm-img2.akamaized.net/i/u/34s/c1db9b037d1f4d009fedfd5d378ae2a4.png",
      "size": "small"
     },
     {
      "#text": "https://lastfm-img2.akamaized.net/i/u/64s/c1db9b037d1f4d009fedfd5d378ae2a4.png",
      "size": "medium"
     },
     {
      "#text": "https://lastfm-img2.akamaized.net/i/u/174s/c1db9b037d1f4d009fedfd5d378ae2a4.png",
      "size": "large"
     },
     {
      "#text": "https://lastfm-img2.akamaized.net/i/u/300x300/c1db9b037d1f4d009fedfd5d378ae2a4.png",
      "size": "extralarge"
     },
     {
      "#text": "https://lastfm-img2.akamaized.net/i/u/c1db9b037d1f4d009fedfd5d378ae2a4.png",
      "size": "mega"
     }
    ],
    "@attr": {
     "rank": "47"
    }
   },
   {
    "name": "BROODS",
    "playcount": "161",
    "mbid": "68205c8f-9518-4b49-8df7-bd297da67599",
    "url": "https://www.last.fm/music/BROODS",
    "streamable": "0",
    "image": [
     {
      "#text": "https://lastfm-img2.akamaized.net/i/u/34s/efaddfc258944637c6754cf39eede780.png",
      "size": "small"
     },
     {
      "#text": "https://lastfm-img2.akamaized.net/i/u/64s/efaddfc258944637c6754cf39eede780.png",
      "size": "medium"
     },
     {
      "#text": "https://lastfm-img2.akamaized.net/i/u/174s/efaddfc258944637c6754cf39eede780.png",
      "size": "large"
     },
     {
      "#text": "https://lastfm-img2.akamaized.net/i/u/300x300/efaddfc258944637c6754cf39eede780.png",
      "size": "extralarge"
     },
     {
      "#text": "https://lastfm-img2.akamaized.net/i/u/efaddfc258944637c6754cf39eede780.png",
      "size": "mega"
     }
    ],
    "@attr": {
     "rank": "48"
    }
   },
   {
    "name": "Gorillaz",
    "playcount": "161",
    "mbid": "e21857d5-3256-4547-afb3-4b6ded592596",
    "url": "https://www.last.fm/music/Gorillaz",
    "streamable": "0",
    "image": [
     {
      "#text": "https://lastfm-img2.akamaized.net/i/u/34s/9ea630fea0514fe7a1b33067a4c3b0d6.png",
      "size": "small"
     },
     {
      "#text": "https://lastfm-img2.akamaized.net/i/u/64s/9ea630fea0514fe7a1b33067a4c3b0d6.png",
      "size": "medium"
     },
     {
      "#text": "https://lastfm-img2.akamaized.net/i/u/174s/9ea630fea0514fe7a1b33067a4c3b0d6.png",
      "size": "large"
     },
     {
      "#text": "https://lastfm-img2.akamaized.net/i/u/300x300/9ea630fea0514fe7a1b33067a4c3b0d6.png",
      "size": "extralarge"
     },
     {
      "#text": "https://lastfm-img2.akamaized.net/i/u/9ea630fea0514fe7a1b33067a4c3b0d6.png",
      "size": "mega"
     }
    ],
    "@attr": {
     "rank": "49"
    }
   },
   {
    "name": "Parks, Squares and Alleys",
    "playcount": "161",
    "mbid": "d4e4e9e5-45c6-4f96-905a-c14bca00ada7",
    "url": "https://www.last.fm/music/Parks,+Squares+and+Alleys",
    "streamable": "0",
    "image": [
     {
      "#text": "https://lastfm-img2.akamaized.net/i/u/34s/80907b35dc464f35abc2f07d2e29e669.png",
      "size": "small"
     },
     {
      "#text": "https://lastfm-img2.akamaized.net/i/u/64s/80907b35dc464f35abc2f07d2e29e669.png",
      "size": "medium"
     },
     {
      "#text": "https://lastfm-img2.akamaized.net/i/u/174s/80907b35dc464f35abc2f07d2e29e669.png",
      "size": "large"
     },
     {
      "#text": "https://lastfm-img2.akamaized.net/i/u/300x300/80907b35dc464f35abc2f07d2e29e669.png",
      "size": "extralarge"
     },
     {
      "#text": "https://lastfm-img2.akamaized.net/i/u/80907b35dc464f35abc2f07d2e29e669.png",
      "size": "mega"
     }
    ],
    "@attr": {
     "rank": "50"
    }
   }
  ],
  "@attr": {
   "user": "ShvedkaSvetka",
   "page": "1",
   "perPage": "50",
   "totalPages": "27",
   "total": "1319"
  }
 }
}